{
  "aspectWidth": 4,
  "aspectHeight": 3,
  "enableKeyboardZoom": true,
  "enableKeyboardRotation": true,
  "enableKeyboardNavigation": true,
  "enableMouseTranslation": true,
  "enableMouseZoom": true,
  "enableMouseRotation": true,
  "enableMouseNavigation": true,
  "frames": [
    {
      "frameId": "frame8517",
      "title": "Geral",
      "timeoutMs": 0,
      "timeoutEnable": false,
      "transitionDurationMs": 1000,
      "showInFrameList": true,
      "showFrameNumber": true,
      "layerProperties": {
        "layer1": {
          "link": false,
          "referenceElementId": "image1385",
          "outlineElementId": "image1385",
          "outlineElementAuto": true,
          "transitionTimingFunction": "linear",
          "transitionRelativeZoom": 0,
          "transitionPathId": ""
        },
        "layer2": {
          "link": false,
          "referenceElementId": "image3076",
          "outlineElementId": "image3076",
          "outlineElementAuto": true,
          "transitionTimingFunction": "linear",
          "transitionRelativeZoom": 0,
          "transitionPathId": ""
        },
        "__sozi_auto__": {
          "link": false,
          "referenceElementId": "",
          "outlineElementId": "",
          "outlineElementAuto": true,
          "transitionTimingFunction": "linear",
          "transitionRelativeZoom": 0,
          "transitionPathId": ""
        }
      },
      "cameraStates": {
        "layer1": {
          "cx": 3630.8078672692086,
          "cy": 2254.425408715056,
          "width": 7502.659453603133,
          "height": 5629.939119030295,
          "opacity": 1,
          "angle": 0,
          "clipped": false,
          "clipXOffset": 0,
          "clipYOffset": 0,
          "clipWidthFactor": 1,
          "clipHeightFactor": 1
        },
        "layer2": {
          "cx": 3318.8344255417774,
          "cy": 2048.470801344963,
          "width": 9119.529457476201,
          "height": 6843.2261863008225,
          "opacity": 1,
          "angle": 0,
          "clipped": false,
          "clipXOffset": 0,
          "clipYOffset": 0,
          "clipWidthFactor": 1,
          "clipHeightFactor": 1
        },
        "__sozi_auto__": {
          "cx": 3428.6396484375,
          "cy": 2394.13818359375,
          "width": 5332,
          "height": 4000,
          "opacity": 1,
          "angle": 0,
          "clipped": false,
          "clipXOffset": 0,
          "clipYOffset": 0,
          "clipWidthFactor": 1,
          "clipHeightFactor": 1
        }
      },
      "cameraOffsets": {
        "layer1": {
          "deltaX": -2268.1008241370414,
          "deltaY": 1014.0125669181812,
          "widthFactor": 5.628401690625006,
          "heightFactor": 5.629939119030295,
          "deltaAngle": 0
        },
        "layer2": {
          "deltaX": -1096.4839338332226,
          "deltaY": -1509.729393967537,
          "widthFactor": 16.228353068501693,
          "heightFactor": 16.232786285235825,
          "deltaAngle": 0
        }
      }
    },
    {
      "frameId": "frame4646",
      "title": "Inicio",
      "timeoutMs": 0,
      "timeoutEnable": false,
      "transitionDurationMs": 1000,
      "showInFrameList": true,
      "showFrameNumber": true,
      "layerProperties": {
        "layer1": {
          "link": false,
          "referenceElementId": "image1711",
          "outlineElementId": "image1711",
          "outlineElementAuto": true,
          "transitionTimingFunction": "linear",
          "transitionRelativeZoom": 0,
          "transitionPathId": ""
        },
        "layer2": {
          "link": false,
          "referenceElementId": "",
          "outlineElementId": "image1711",
          "outlineElementAuto": true,
          "transitionTimingFunction": "linear",
          "transitionRelativeZoom": 0,
          "transitionPathId": ""
        },
        "__sozi_auto__": {
          "link": false,
          "referenceElementId": "",
          "outlineElementId": "image1711",
          "outlineElementAuto": true,
          "transitionTimingFunction": "linear",
          "transitionRelativeZoom": 0,
          "transitionPathId": ""
        }
      },
      "cameraStates": {
        "layer1": {
          "cx": 2448.490966796875,
          "cy": 2503.51318359375,
          "width": 1123.9007568359375,
          "height": 843.7500000000002,
          "opacity": 1,
          "angle": 0,
          "clipped": true,
          "clipXOffset": 0,
          "clipYOffset": 0,
          "clipWidthFactor": 1,
          "clipHeightFactor": 1
        },
        "layer2": {
          "cx": 2762.1396484375,
          "cy": 2894.13818359375,
          "width": 1332.9999999999998,
          "height": 1000,
          "opacity": 1,
          "angle": 0,
          "clipped": true,
          "clipXOffset": 0,
          "clipYOffset": 0,
          "clipWidthFactor": 1,
          "clipHeightFactor": 1
        },
        "__sozi_auto__": {
          "cx": 2762.1396484375,
          "cy": 2894.13818359375,
          "width": 1332.9999999999998,
          "height": 1000,
          "opacity": 1,
          "angle": 0,
          "clipped": true,
          "clipXOffset": 0,
          "clipYOffset": 0,
          "clipWidthFactor": 1,
          "clipHeightFactor": 1
        }
      },
      "cameraOffsets": {
        "layer1": {
          "deltaX": 0,
          "deltaY": 0,
          "widthFactor": 1,
          "heightFactor": 1.0000000000000002,
          "deltaAngle": 0
        }
      }
    },
    {
      "frameId": "frame5489",
      "title": "Prologo",
      "timeoutMs": 0,
      "timeoutEnable": false,
      "transitionDurationMs": 1000,
      "showInFrameList": true,
      "showFrameNumber": true,
      "layerProperties": {
        "layer1": {
          "link": false,
          "referenceElementId": "image1722",
          "outlineElementId": "image1722",
          "outlineElementAuto": true,
          "transitionTimingFunction": "linear",
          "transitionRelativeZoom": 0,
          "transitionPathId": ""
        },
        "layer2": {
          "link": false,
          "referenceElementId": "",
          "outlineElementId": "image1722",
          "outlineElementAuto": true,
          "transitionTimingFunction": "linear",
          "transitionRelativeZoom": 0,
          "transitionPathId": ""
        },
        "__sozi_auto__": {
          "link": false,
          "referenceElementId": "",
          "outlineElementId": "image1722",
          "outlineElementAuto": true,
          "transitionTimingFunction": "linear",
          "transitionRelativeZoom": 0,
          "transitionPathId": ""
        }
      },
      "cameraStates": {
        "layer1": {
          "cx": 1324.590087890625,
          "cy": 1659.76318359375,
          "width": 1123.9007568359375,
          "height": 843.75,
          "opacity": 1,
          "angle": 0,
          "clipped": true,
          "clipXOffset": 0,
          "clipYOffset": 0,
          "clipWidthFactor": 1,
          "clipHeightFactor": 1
        },
        "layer2": {
          "cx": 1429.1396484375,
          "cy": 1894.13818359375,
          "width": 1332.9999999999998,
          "height": 999.9999999999999,
          "opacity": 1,
          "angle": 0,
          "clipped": true,
          "clipXOffset": 0,
          "clipYOffset": 0,
          "clipWidthFactor": 1,
          "clipHeightFactor": 1
        },
        "__sozi_auto__": {
          "cx": 1429.1396484375,
          "cy": 1894.13818359375,
          "width": 1332.9999999999998,
          "height": 999.9999999999999,
          "opacity": 1,
          "angle": 0,
          "clipped": true,
          "clipXOffset": 0,
          "clipYOffset": 0,
          "clipWidthFactor": 1,
          "clipHeightFactor": 1
        }
      },
      "cameraOffsets": {
        "layer1": {
          "deltaX": 0,
          "deltaY": 0,
          "widthFactor": 1,
          "heightFactor": 1,
          "deltaAngle": 0
        }
      }
    },
    {
      "frameId": "frame1822",
      "title": "Era uma vez",
      "timeoutMs": 0,
      "timeoutEnable": false,
      "transitionDurationMs": 1000,
      "showInFrameList": true,
      "showFrameNumber": true,
      "layerProperties": {
        "layer1": {
          "link": false,
          "referenceElementId": "image1733",
          "outlineElementId": "image1733",
          "outlineElementAuto": true,
          "transitionTimingFunction": "linear",
          "transitionRelativeZoom": 0,
          "transitionPathId": ""
        },
        "layer2": {
          "link": false,
          "referenceElementId": "image0",
          "outlineElementId": "image0",
          "outlineElementAuto": true,
          "transitionTimingFunction": "linear",
          "transitionRelativeZoom": 0,
          "transitionPathId": ""
        },
        "__sozi_auto__": {
          "link": false,
          "referenceElementId": "",
          "outlineElementId": "image1733",
          "outlineElementAuto": true,
          "transitionTimingFunction": "linear",
          "transitionRelativeZoom": 0,
          "transitionPathId": ""
        }
      },
      "cameraStates": {
        "layer1": {
          "cx": 3572.3916015625,
          "cy": 1659.76318359375,
          "width": 1123.9007568359377,
          "height": 843.7500000000002,
          "opacity": 1,
          "angle": 0,
          "clipped": true,
          "clipXOffset": 0,
          "clipYOffset": 0,
          "clipWidthFactor": 1,
          "clipHeightFactor": 1
        },
        "layer2": {
          "cx": 4415.318359375,
          "cy": 3136.324951171875,
          "width": 561.950397491455,
          "height": 421.568180967486,
          "opacity": 0,
          "angle": 0,
          "clipped": true,
          "clipXOffset": 0,
          "clipYOffset": 0,
          "clipWidthFactor": 1,
          "clipHeightFactor": 1
        },
        "__sozi_auto__": {
          "cx": 4095.1396484375,
          "cy": 1894.13818359375,
          "width": 1333,
          "height": 1000.0000000000001,
          "opacity": 1,
          "angle": 0,
          "clipped": true,
          "clipXOffset": 0,
          "clipYOffset": 0,
          "clipWidthFactor": 1,
          "clipHeightFactor": 1
        }
      },
      "cameraOffsets": {
        "layer1": {
          "deltaX": 0,
          "deltaY": 0,
          "widthFactor": 1.0000000000000002,
          "heightFactor": 1.0000000000000002,
          "deltaAngle": 0
        },
        "layer2": {
          "deltaX": 0,
          "deltaY": 0,
          "widthFactor": 0.9999999999999998,
          "heightFactor": 0.9999999999999998,
          "deltaAngle": 0
        }
      }
    },
    {
      "frameId": "frame3361",
      "title": "Era uma vez",
      "timeoutMs": 0,
      "timeoutEnable": false,
      "transitionDurationMs": 1000,
      "showInFrameList": true,
      "showFrameNumber": true,
      "layerProperties": {
        "layer1": {
          "link": true,
          "referenceElementId": "image1733",
          "outlineElementId": "image1733",
          "outlineElementAuto": true,
          "transitionTimingFunction": "linear",
          "transitionRelativeZoom": 0,
          "transitionPathId": ""
        },
        "layer2": {
          "link": false,
          "referenceElementId": "image0",
          "outlineElementId": "image0",
          "outlineElementAuto": true,
          "transitionTimingFunction": "linear",
          "transitionRelativeZoom": 0,
          "transitionPathId": ""
        },
        "__sozi_auto__": {
          "link": true,
          "referenceElementId": "",
          "outlineElementId": "image1733",
          "outlineElementAuto": true,
          "transitionTimingFunction": "linear",
          "transitionRelativeZoom": 0,
          "transitionPathId": ""
        }
      },
      "cameraStates": {
        "layer1": {
          "cx": 3572.3916015625,
          "cy": 1659.76318359375,
          "width": 1123.9007568359377,
          "height": 843.7500000000002,
          "opacity": 1,
          "angle": 0,
          "clipped": true,
          "clipXOffset": 0,
          "clipYOffset": 0,
          "clipWidthFactor": 1,
          "clipHeightFactor": 1
        },
        "layer2": {
          "cx": 4418.736161058554,
          "cy": 3144.7727009648975,
          "width": 509.70557595596836,
          "height": 382.47922340180986,
          "opacity": 0.7,
          "angle": 0,
          "clipped": true,
          "clipXOffset": 0,
          "clipYOffset": 0,
          "clipWidthFactor": 0.9999999999999998,
          "clipHeightFactor": 0.999726897363383
        },
        "__sozi_auto__": {
          "cx": 4095.1396484375,
          "cy": 1894.13818359375,
          "width": 1333,
          "height": 1000.0000000000001,
          "opacity": 1,
          "angle": 0,
          "clipped": true,
          "clipXOffset": 0,
          "clipYOffset": 0,
          "clipWidthFactor": 1,
          "clipHeightFactor": 1
        }
      },
      "cameraOffsets": {
        "layer1": {
          "deltaX": 0,
          "deltaY": 0,
          "widthFactor": 1.0000000000000002,
          "heightFactor": 1.0000000000000002,
          "deltaAngle": 0
        },
        "layer2": {
          "deltaX": 3.4178016835539893,
          "deltaY": 8.447749793022467,
          "widthFactor": 0.9070294784580499,
          "heightFactor": 0.9072772582694256,
          "deltaAngle": 0
        }
      }
    },
    {
      "frameId": "frame8724",
      "title": "Definicao",
      "timeoutMs": 0,
      "timeoutEnable": false,
      "transitionDurationMs": 1000,
      "showInFrameList": true,
      "showFrameNumber": true,
      "layerProperties": {
        "layer1": {
          "link": false,
          "referenceElementId": "image1385",
          "outlineElementId": "image1385",
          "outlineElementAuto": true,
          "transitionTimingFunction": "linear",
          "transitionRelativeZoom": 0,
          "transitionPathId": ""
        },
        "layer2": {
          "link": false,
          "referenceElementId": "image0",
          "outlineElementId": "image0",
          "outlineElementAuto": true,
          "transitionTimingFunction": "linear",
          "transitionRelativeZoom": 0,
          "transitionPathId": ""
        },
        "__sozi_auto__": {
          "link": true,
          "referenceElementId": "",
          "outlineElementId": "image1733",
          "outlineElementAuto": true,
          "transitionTimingFunction": "linear",
          "transitionRelativeZoom": 0,
          "transitionPathId": ""
        }
      },
      "cameraStates": {
        "layer1": {
          "cx": 5898.90869140625,
          "cy": 1240.412841796875,
          "width": 1332.9999999999998,
          "height": 999.9999999999999,
          "opacity": 1,
          "angle": 0,
          "clipped": true,
          "clipXOffset": 0,
          "clipYOffset": 0,
          "clipWidthFactor": 1,
          "clipHeightFactor": 1
        },
        "layer2": {
          "cx": 4415.318359375,
          "cy": 3136.324951171875,
          "width": 561.950397491455,
          "height": 421.568180967486,
          "opacity": 0,
          "angle": 0,
          "clipped": true,
          "clipXOffset": 0,
          "clipYOffset": 0,
          "clipWidthFactor": 1,
          "clipHeightFactor": 1
        },
        "__sozi_auto__": {
          "cx": 4095.1396484375,
          "cy": 1894.13818359375,
          "width": 1333,
          "height": 1000.0000000000001,
          "opacity": 1,
          "angle": 0,
          "clipped": true,
          "clipXOffset": 0,
          "clipYOffset": 0,
          "clipWidthFactor": 1,
          "clipHeightFactor": 1
        }
      },
      "cameraOffsets": {
        "layer1": {
          "deltaX": 0,
          "deltaY": 0,
          "widthFactor": 0.9999999999999998,
          "heightFactor": 0.9999999999999999,
          "deltaAngle": 0
        },
        "layer2": {
          "deltaX": 0,
          "deltaY": 0,
          "widthFactor": 0.9999999999999998,
          "heightFactor": 0.9999999999999998,
          "deltaAngle": 0
        }
      }
    },
    {
      "frameId": "frame5859",
      "title": "Software livre",
      "timeoutMs": 0,
      "timeoutEnable": false,
      "transitionDurationMs": 1000,
      "showInFrameList": true,
      "showFrameNumber": true,
      "layerProperties": {
        "layer1": {
          "link": false,
          "referenceElementId": "image1479",
          "outlineElementId": "image1479",
          "outlineElementAuto": true,
          "transitionTimingFunction": "linear",
          "transitionRelativeZoom": 0,
          "transitionPathId": ""
        },
        "layer2": {
          "link": false,
          "referenceElementId": "image3076",
          "outlineElementId": "image1479",
          "outlineElementAuto": true,
          "transitionTimingFunction": "linear",
          "transitionRelativeZoom": 0,
          "transitionPathId": ""
        },
        "__sozi_auto__": {
          "link": false,
          "referenceElementId": "",
          "outlineElementId": "image1479",
          "outlineElementAuto": true,
          "transitionTimingFunction": "linear",
          "transitionRelativeZoom": 0,
          "transitionPathId": ""
        }
      },
      "cameraStates": {
        "layer1": {
          "cx": 5898.90869140625,
          "cy": 2240.412841796875,
          "width": 1333,
          "height": 1000,
          "opacity": 1,
          "angle": 0,
          "clipped": true,
          "clipXOffset": 0,
          "clipYOffset": 0,
          "clipWidthFactor": 1,
          "clipHeightFactor": 1
        },
        "layer2": {
          "cx": 4433.526720603271,
          "cy": 3542.773271588541,
          "width": 561.9503974914544,
          "height": 421.5681901661323,
          "opacity": 0,
          "angle": 0,
          "clipped": true,
          "clipXOffset": 0,
          "clipYOffset": 0,
          "clipWidthFactor": 1,
          "clipHeightFactor": 1
        },
        "__sozi_auto__": {
          "cx": 4095.139648437499,
          "cy": 2894.1381835937514,
          "width": 1333.000000000003,
          "height": 1000.000000000002,
          "opacity": 1,
          "angle": 0,
          "clipped": true,
          "clipXOffset": 0,
          "clipYOffset": 0,
          "clipWidthFactor": 1,
          "clipHeightFactor": 1
        }
      },
      "cameraOffsets": {
        "layer1": {
          "deltaX": 0,
          "deltaY": 0,
          "widthFactor": 1,
          "heightFactor": 1,
          "deltaAngle": 0
        },
        "layer2": {
          "deltaX": 18.208361228271315,
          "deltaY": -15.426923723959135,
          "widthFactor": 0.9999999999999988,
          "heightFactor": 1.0000000218200675,
          "deltaAngle": 0
        }
      }
    },
    {
      "frameId": "frame8153",
      "title": "Liberdades",
      "timeoutMs": 0,
      "timeoutEnable": false,
      "transitionDurationMs": 1000,
      "showInFrameList": true,
      "showFrameNumber": true,
      "layerProperties": {
        "layer1": {
          "link": false,
          "referenceElementId": "image1621-3",
          "outlineElementId": "image1621-3",
          "outlineElementAuto": true,
          "transitionTimingFunction": "linear",
          "transitionRelativeZoom": 0,
          "transitionPathId": ""
        },
        "layer2": {
          "link": true,
          "referenceElementId": "image3076",
          "outlineElementId": "image1479",
          "outlineElementAuto": true,
          "transitionTimingFunction": "linear",
          "transitionRelativeZoom": 0,
          "transitionPathId": ""
        },
        "__sozi_auto__": {
          "link": true,
          "referenceElementId": "",
          "outlineElementId": "image1479",
          "outlineElementAuto": true,
          "transitionTimingFunction": "linear",
          "transitionRelativeZoom": 0,
          "transitionPathId": ""
        }
      },
      "cameraStates": {
        "layer1": {
          "cx": 5924.7431640625,
          "cy": 3269.13720703125,
          "width": 1333,
          "height": 1000,
          "opacity": 1,
          "angle": 0,
          "clipped": true,
          "clipXOffset": 0,
          "clipYOffset": 0,
          "clipWidthFactor": 1,
          "clipHeightFactor": 1
        },
        "layer2": {
          "cx": 4433.526720603271,
          "cy": 3542.773271588541,
          "width": 561.9503974914544,
          "height": 421.5681901661323,
          "opacity": 0,
          "angle": 0,
          "clipped": true,
          "clipXOffset": 0,
          "clipYOffset": 0,
          "clipWidthFactor": 1,
          "clipHeightFactor": 1
        },
        "__sozi_auto__": {
          "cx": 4095.139648437499,
          "cy": 2894.1381835937514,
          "width": 1333.000000000003,
          "height": 1000.000000000002,
          "opacity": 1,
          "angle": 0,
          "clipped": true,
          "clipXOffset": 0,
          "clipYOffset": 0,
          "clipWidthFactor": 1,
          "clipHeightFactor": 1
        }
      },
      "cameraOffsets": {
        "layer1": {
          "deltaX": 0,
          "deltaY": 0,
          "widthFactor": 1,
          "heightFactor": 1,
          "deltaAngle": 0
        },
        "layer2": {
          "deltaX": 18.208361228271315,
          "deltaY": -15.426923723959135,
          "widthFactor": 0.9999999999999988,
          "heightFactor": 1.0000000218200675,
          "deltaAngle": 0
        }
      }
    },
    {
      "frameId": "frame1168",
      "title": "Em algum lugar",
      "timeoutMs": 0,
      "timeoutEnable": false,
      "transitionDurationMs": 1000,
      "showInFrameList": true,
      "showFrameNumber": true,
      "layerProperties": {
        "layer1": {
          "link": false,
          "referenceElementId": "image1307",
          "outlineElementId": "image1307",
          "outlineElementAuto": true,
          "transitionTimingFunction": "linear",
          "transitionRelativeZoom": 0,
          "transitionPathId": ""
        },
        "layer2": {
          "link": false,
          "referenceElementId": "image3076",
          "outlineElementId": "image3076",
          "outlineElementAuto": true,
          "transitionTimingFunction": "linear",
          "transitionRelativeZoom": 0,
          "transitionPathId": ""
        },
        "__sozi_auto__": {
          "link": true,
          "referenceElementId": "",
          "outlineElementId": "image1733",
          "outlineElementAuto": true,
          "transitionTimingFunction": "linear",
          "transitionRelativeZoom": 0,
          "transitionPathId": ""
        }
      },
      "cameraStates": {
        "layer1": {
          "cx": 2448.490966796875,
          "cy": 816.01318359375,
          "width": 1123.9007568359375,
          "height": 843.75,
          "opacity": 1,
          "angle": 0,
          "clipped": true,
          "clipXOffset": 0,
          "clipYOffset": 0,
          "clipWidthFactor": 1,
          "clipHeightFactor": 1
        },
        "layer2": {
          "cx": 4415.318359375,
          "cy": 3558.2001953125,
          "width": 561.950397491455,
          "height": 421.56818096748606,
          "opacity": 0,
          "angle": 0,
          "clipped": true,
          "clipXOffset": 0,
          "clipYOffset": 0,
          "clipWidthFactor": 1,
          "clipHeightFactor": 1
        },
        "__sozi_auto__": {
          "cx": 4095.139648437499,
          "cy": 2894.1381835937514,
          "width": 1333.000000000003,
          "height": 1000.000000000002,
          "opacity": 1,
          "angle": 0,
          "clipped": true,
          "clipXOffset": 0,
          "clipYOffset": 0,
          "clipWidthFactor": 1,
          "clipHeightFactor": 1
        }
      },
      "cameraOffsets": {
        "layer1": {
          "deltaX": 0,
          "deltaY": 0,
          "widthFactor": 1,
          "heightFactor": 1,
          "deltaAngle": 0
        },
        "layer2": {
          "deltaX": 0,
          "deltaY": 0,
          "widthFactor": 0.9999999999999998,
          "heightFactor": 0.9999999999999999,
          "deltaAngle": 0
        }
      }
    },
    {
      "frameId": "frame1564",
      "title": "Em algum lugar",
      "timeoutMs": 0,
      "timeoutEnable": false,
      "transitionDurationMs": 1000,
      "showInFrameList": true,
      "showFrameNumber": true,
      "layerProperties": {
        "layer1": {
          "link": true,
          "referenceElementId": "image1744",
          "outlineElementId": "image1744",
          "outlineElementAuto": true,
          "transitionTimingFunction": "linear",
          "transitionRelativeZoom": 0,
          "transitionPathId": ""
        },
        "layer2": {
          "link": false,
          "referenceElementId": "image3076",
          "outlineElementId": "image3076",
          "outlineElementAuto": true,
          "transitionTimingFunction": "linear",
          "transitionRelativeZoom": 0,
          "transitionPathId": ""
        },
        "__sozi_auto__": {
          "link": true,
          "referenceElementId": "",
          "outlineElementId": "image1733",
          "outlineElementAuto": true,
          "transitionTimingFunction": "linear",
          "transitionRelativeZoom": 0,
          "transitionPathId": ""
        }
      },
      "cameraStates": {
        "layer1": {
          "cx": 2448.490966796875,
          "cy": 816.01318359375,
          "width": 1123.9007568359375,
          "height": 843.75,
          "opacity": 1,
          "angle": 0,
          "clipped": true,
          "clipXOffset": 0,
          "clipYOffset": 0,
          "clipWidthFactor": 1,
          "clipHeightFactor": 1
        },
        "layer2": {
          "cx": 4415.318359375,
          "cy": 3558.2001953125,
          "width": 561.950397491455,
          "height": 421.56818096748606,
          "opacity": 0.7,
          "angle": 0,
          "clipped": true,
          "clipXOffset": 0,
          "clipYOffset": 0,
          "clipWidthFactor": 1,
          "clipHeightFactor": 1
        },
        "__sozi_auto__": {
          "cx": 4095.139648437499,
          "cy": 2894.1381835937514,
          "width": 1333.000000000003,
          "height": 1000.000000000002,
          "opacity": 1,
          "angle": 0,
          "clipped": true,
          "clipXOffset": 0,
          "clipYOffset": 0,
          "clipWidthFactor": 1,
          "clipHeightFactor": 1
        }
      },
      "cameraOffsets": {
        "layer2": {
          "deltaX": 0,
          "deltaY": 0,
          "widthFactor": 0.9999999999999998,
          "heightFactor": 0.9999999999999999,
          "deltaAngle": 0
        }
      }
    },
    {
      "frameId": "frame1426",
      "title": "Diaspora e Mastodon",
      "timeoutMs": 0,
      "timeoutEnable": false,
      "transitionDurationMs": 1000,
      "showInFrameList": true,
      "showFrameNumber": true,
      "layerProperties": {
        "layer1": {
          "link": false,
          "referenceElementId": "image5970",
          "outlineElementId": "image5970",
          "outlineElementAuto": true,
          "transitionTimingFunction": "linear",
          "transitionRelativeZoom": 0,
          "transitionPathId": ""
        },
        "layer2": {
          "link": false,
          "referenceElementId": "image3076",
          "outlineElementId": "image3076",
          "outlineElementAuto": true,
          "transitionTimingFunction": "linear",
          "transitionRelativeZoom": 0,
          "transitionPathId": ""
        },
        "__sozi_auto__": {
          "link": true,
          "referenceElementId": "",
          "outlineElementId": "image1733",
          "outlineElementAuto": true,
          "transitionTimingFunction": "linear",
          "transitionRelativeZoom": 0,
          "transitionPathId": ""
        }
      },
      "cameraStates": {
        "layer1": {
          "cx": 2448.49072265625,
          "cy": 1659.76318359375,
          "width": 1123.9007568359375,
          "height": 843.7500000000002,
          "opacity": 1,
          "angle": 0,
          "clipped": true,
          "clipXOffset": 0,
          "clipYOffset": 0,
          "clipWidthFactor": 1,
          "clipHeightFactor": 1
        },
        "layer2": {
          "cx": 4415.318359375,
          "cy": 3558.2001953125,
          "width": 561.950397491455,
          "height": 421.56818096748606,
          "opacity": 0,
          "angle": 0,
          "clipped": true,
          "clipXOffset": 0,
          "clipYOffset": 0,
          "clipWidthFactor": 1,
          "clipHeightFactor": 1
        },
        "__sozi_auto__": {
          "cx": 4095.139648437499,
          "cy": 2894.1381835937514,
          "width": 1333.000000000003,
          "height": 1000.000000000002,
          "opacity": 1,
          "angle": 0,
          "clipped": true,
          "clipXOffset": 0,
          "clipYOffset": 0,
          "clipWidthFactor": 1,
          "clipHeightFactor": 1
        }
      },
      "cameraOffsets": {
        "layer1": {
          "deltaX": 0,
          "deltaY": 0,
          "widthFactor": 1,
          "heightFactor": 1.0000000000000002,
          "deltaAngle": 0
        },
        "layer2": {
          "deltaX": 0,
          "deltaY": 0,
          "widthFactor": 0.9999999999999998,
          "heightFactor": 0.9999999999999999,
          "deltaAngle": 0
        }
      }
    },
    {
      "frameId": "frame5432",
      "title": "GNU Social e Identica",
      "timeoutMs": 0,
      "timeoutEnable": false,
      "transitionDurationMs": 1000,
      "showInFrameList": true,
      "showFrameNumber": true,
      "layerProperties": {
        "layer1": {
          "link": false,
          "referenceElementId": "image5840",
          "outlineElementId": "image5840",
          "outlineElementAuto": true,
          "transitionTimingFunction": "linear",
          "transitionRelativeZoom": 0,
          "transitionPathId": ""
        },
        "layer2": {
          "link": true,
          "referenceElementId": "image3076",
          "outlineElementId": "image3076",
          "outlineElementAuto": true,
          "transitionTimingFunction": "linear",
          "transitionRelativeZoom": 0,
          "transitionPathId": ""
        },
        "__sozi_auto__": {
          "link": true,
          "referenceElementId": "",
          "outlineElementId": "image1733",
          "outlineElementAuto": true,
          "transitionTimingFunction": "linear",
          "transitionRelativeZoom": 0,
          "transitionPathId": ""
        }
      },
      "cameraStates": {
        "layer1": {
          "cx": 1324.590087890625,
          "cy": 2503.51318359375,
          "width": 1123.9007568359377,
          "height": 843.7500000000002,
          "opacity": 1,
          "angle": 0,
          "clipped": true,
          "clipXOffset": 0,
          "clipYOffset": 0,
          "clipWidthFactor": 1,
          "clipHeightFactor": 1
        },
        "layer2": {
          "cx": 4415.318359375,
          "cy": 3558.2001953125,
          "width": 561.950397491455,
          "height": 421.56818096748606,
          "opacity": 0,
          "angle": 0,
          "clipped": true,
          "clipXOffset": 0,
          "clipYOffset": 0,
          "clipWidthFactor": 1,
          "clipHeightFactor": 1
        },
        "__sozi_auto__": {
          "cx": 4095.139648437499,
          "cy": 2894.1381835937514,
          "width": 1333.000000000003,
          "height": 1000.000000000002,
          "opacity": 1,
          "angle": 0,
          "clipped": true,
          "clipXOffset": 0,
          "clipYOffset": 0,
          "clipWidthFactor": 1,
          "clipHeightFactor": 1
        }
      },
      "cameraOffsets": {
        "layer1": {
          "deltaX": 0,
          "deltaY": 0,
          "widthFactor": 1.0000000000000002,
          "heightFactor": 1.0000000000000002,
          "deltaAngle": 0
        },
        "layer2": {
          "deltaX": 0,
          "deltaY": 0,
          "widthFactor": 0.9999999999999998,
          "heightFactor": 0.9999999999999999,
          "deltaAngle": 0
        }
      }
    },
    {
      "frameId": "frame5003",
      "title": "Not a bug e Pixelfed",
      "timeoutMs": 0,
      "timeoutEnable": false,
      "transitionDurationMs": 1000,
      "showInFrameList": true,
      "showFrameNumber": true,
      "layerProperties": {
        "layer1": {
          "link": false,
          "referenceElementId": "image1299",
          "outlineElementId": "image1299",
          "outlineElementAuto": true,
          "transitionTimingFunction": "linear",
          "transitionRelativeZoom": 0,
          "transitionPathId": ""
        },
        "layer2": {
          "link": true,
          "referenceElementId": "image3076",
          "outlineElementId": "image3076",
          "outlineElementAuto": true,
          "transitionTimingFunction": "linear",
          "transitionRelativeZoom": 0,
          "transitionPathId": ""
        },
        "__sozi_auto__": {
          "link": true,
          "referenceElementId": "",
          "outlineElementId": "image1733",
          "outlineElementAuto": true,
          "transitionTimingFunction": "linear",
          "transitionRelativeZoom": 0,
          "transitionPathId": ""
        }
      },
      "cameraStates": {
        "layer1": {
          "cx": 3572.3916015625,
          "cy": 2503.51318359375,
          "width": 1123.9007568359377,
          "height": 843.7500000000002,
          "opacity": 1,
          "angle": 0,
          "clipped": true,
          "clipXOffset": 0,
          "clipYOffset": 0,
          "clipWidthFactor": 1,
          "clipHeightFactor": 1
        },
        "layer2": {
          "cx": 4415.318359375,
          "cy": 3558.2001953125,
          "width": 561.950397491455,
          "height": 421.56818096748606,
          "opacity": 0,
          "angle": 0,
          "clipped": true,
          "clipXOffset": 0,
          "clipYOffset": 0,
          "clipWidthFactor": 1,
          "clipHeightFactor": 1
        },
        "__sozi_auto__": {
          "cx": 4095.139648437499,
          "cy": 2894.1381835937514,
          "width": 1333.000000000003,
          "height": 1000.000000000002,
          "opacity": 1,
          "angle": 0,
          "clipped": true,
          "clipXOffset": 0,
          "clipYOffset": 0,
          "clipWidthFactor": 1,
          "clipHeightFactor": 1
        }
      },
      "cameraOffsets": {
        "layer1": {
          "deltaX": 0,
          "deltaY": 0,
          "widthFactor": 1.0000000000000002,
          "heightFactor": 1.0000000000000002,
          "deltaAngle": 0
        },
        "layer2": {
          "deltaX": 0,
          "deltaY": 0,
          "widthFactor": 0.9999999999999998,
          "heightFactor": 0.9999999999999999,
          "deltaAngle": 0
        }
      }
    },
    {
      "frameId": "frame2879",
      "title": "Peertube",
      "timeoutMs": 0,
      "timeoutEnable": false,
      "transitionDurationMs": 1000,
      "showInFrameList": true,
      "showFrameNumber": true,
      "layerProperties": {
        "layer1": {
          "link": false,
          "referenceElementId": "image5905",
          "outlineElementId": "image5905",
          "outlineElementAuto": true,
          "transitionTimingFunction": "linear",
          "transitionRelativeZoom": 0,
          "transitionPathId": ""
        },
        "layer2": {
          "link": false,
          "referenceElementId": "image3076",
          "outlineElementId": "image5905",
          "outlineElementAuto": true,
          "transitionTimingFunction": "linear",
          "transitionRelativeZoom": 0,
          "transitionPathId": ""
        },
        "__sozi_auto__": {
          "link": false,
          "referenceElementId": "",
          "outlineElementId": "image5905",
          "outlineElementAuto": true,
          "transitionTimingFunction": "linear",
          "transitionRelativeZoom": 0,
          "transitionPathId": ""
        }
      },
      "cameraStates": {
        "layer1": {
          "cx": 4696.29248046875,
          "cy": 1659.76318359375,
          "width": 1123.9007568359375,
          "height": 843.75,
          "opacity": 1,
          "angle": 0,
          "clipped": true,
          "clipXOffset": 0,
          "clipYOffset": 0,
          "clipWidthFactor": 1,
          "clipHeightFactor": 1
        },
        "layer2": {
          "cx": 4392.995158226174,
          "cy": 3546.5379523829442,
          "width": 561.695086509613,
          "height": 421.6833438004957,
          "opacity": 0,
          "angle": 0,
          "clipped": true,
          "clipXOffset": 0,
          "clipYOffset": 0,
          "clipWidthFactor": 1,
          "clipHeightFactor": 1
        },
        "__sozi_auto__": {
          "cx": 4103.418193618639,
          "cy": 2898.4631190885348,
          "width": 1332.394377973016,
          "height": 1000.2731554160164,
          "opacity": 1,
          "angle": 0,
          "clipped": true,
          "clipXOffset": 0,
          "clipYOffset": 0,
          "clipWidthFactor": 1,
          "clipHeightFactor": 1
        }
      },
      "cameraOffsets": {
        "layer1": {
          "deltaX": 0,
          "deltaY": 0,
          "widthFactor": 1,
          "heightFactor": 1,
          "deltaAngle": 0
        },
        "layer2": {
          "deltaX": -22.32320114882623,
          "deltaY": -11.66224292955576,
          "widthFactor": 0.9995456698972334,
          "heightFactor": 1.0002731772420426,
          "deltaAngle": 0
        }
      }
    },
    {
      "frameId": "frame6958",
      "title": "Tipos de redes",
      "timeoutMs": 0,
      "timeoutEnable": false,
      "transitionDurationMs": 1000,
      "showInFrameList": true,
      "showFrameNumber": true,
      "layerProperties": {
        "layer1": {
          "link": false,
          "referenceElementId": "image4850",
          "outlineElementId": "image4850",
          "outlineElementAuto": true,
          "transitionTimingFunction": "linear",
          "transitionRelativeZoom": 0,
          "transitionPathId": ""
        },
        "layer2": {
          "link": true,
          "referenceElementId": "image3076",
          "outlineElementId": "image3076",
          "outlineElementAuto": true,
          "transitionTimingFunction": "linear",
          "transitionRelativeZoom": 0,
          "transitionPathId": ""
        },
        "__sozi_auto__": {
          "link": true,
          "referenceElementId": "",
          "outlineElementId": "image1733",
          "outlineElementAuto": true,
          "transitionTimingFunction": "linear",
          "transitionRelativeZoom": 0,
          "transitionPathId": ""
        }
      },
      "cameraStates": {
        "layer1": {
          "cx": 4696.29248046875,
          "cy": 2503.51318359375,
          "width": 1123.9007568359375,
          "height": 843.7500000000002,
          "opacity": 1,
          "angle": 0,
          "clipped": true,
          "clipXOffset": 0,
          "clipYOffset": 0,
          "clipWidthFactor": 1,
          "clipHeightFactor": 1
        },
        "layer2": {
          "cx": 4392.995158226174,
          "cy": 3546.5379523829442,
          "width": 561.695086509613,
          "height": 421.6833438004957,
          "opacity": 0,
          "angle": 0,
          "clipped": true,
          "clipXOffset": 0,
          "clipYOffset": 0,
          "clipWidthFactor": 1,
          "clipHeightFactor": 1
        },
        "__sozi_auto__": {
          "cx": 4103.418193618639,
          "cy": 2898.4631190885348,
          "width": 1332.394377973016,
          "height": 1000.2731554160164,
          "opacity": 1,
          "angle": 0,
          "clipped": true,
          "clipXOffset": 0,
          "clipYOffset": 0,
          "clipWidthFactor": 1,
          "clipHeightFactor": 1
        }
      },
      "cameraOffsets": {
        "layer1": {
          "deltaX": 0,
          "deltaY": 0,
          "widthFactor": 1,
          "heightFactor": 1.0000000000000002,
          "deltaAngle": 0
        },
        "layer2": {
          "deltaX": -22.32320114882623,
          "deltaY": -11.66224292955576,
          "widthFactor": 0.9995456698972334,
          "heightFactor": 1.0002731772420426,
          "deltaAngle": 0
        }
      }
    },
    {
      "frameId": "frame5194",
      "title": "Scuttlebut e Patchwork",
      "timeoutMs": 0,
      "timeoutEnable": false,
      "transitionDurationMs": 1000,
      "showInFrameList": true,
      "showFrameNumber": true,
      "layerProperties": {
        "layer1": {
          "link": false,
          "referenceElementId": "image1234",
          "outlineElementId": "image1234",
          "outlineElementAuto": true,
          "transitionTimingFunction": "linear",
          "transitionRelativeZoom": 0,
          "transitionPathId": ""
        },
        "layer2": {
          "link": true,
          "referenceElementId": "image3076",
          "outlineElementId": "image3076",
          "outlineElementAuto": true,
          "transitionTimingFunction": "linear",
          "transitionRelativeZoom": 0,
          "transitionPathId": ""
        },
        "__sozi_auto__": {
          "link": true,
          "referenceElementId": "",
          "outlineElementId": "image1733",
          "outlineElementAuto": true,
          "transitionTimingFunction": "linear",
          "transitionRelativeZoom": 0,
          "transitionPathId": ""
        }
      },
      "cameraStates": {
        "layer1": {
          "cx": 2448.490966796875,
          "cy": 3347.26318359375,
          "width": 1123.9007568359377,
          "height": 843.7500000000002,
          "opacity": 1,
          "angle": 0,
          "clipped": true,
          "clipXOffset": 0,
          "clipYOffset": 0,
          "clipWidthFactor": 1,
          "clipHeightFactor": 1
        },
        "layer2": {
          "cx": 4392.995158226174,
          "cy": 3546.5379523829442,
          "width": 561.695086509613,
          "height": 421.6833438004957,
          "opacity": 0,
          "angle": 0,
          "clipped": true,
          "clipXOffset": 0,
          "clipYOffset": 0,
          "clipWidthFactor": 1,
          "clipHeightFactor": 1
        },
        "__sozi_auto__": {
          "cx": 4103.418193618639,
          "cy": 2898.4631190885348,
          "width": 1332.394377973016,
          "height": 1000.2731554160164,
          "opacity": 1,
          "angle": 0,
          "clipped": true,
          "clipXOffset": 0,
          "clipYOffset": 0,
          "clipWidthFactor": 1,
          "clipHeightFactor": 1
        }
      },
      "cameraOffsets": {
        "layer1": {
          "deltaX": 0,
          "deltaY": 0,
          "widthFactor": 1.0000000000000002,
          "heightFactor": 1.0000000000000002,
          "deltaAngle": 0
        },
        "layer2": {
          "deltaX": -22.32320114882623,
          "deltaY": -11.66224292955576,
          "widthFactor": 0.9995456698972334,
          "heightFactor": 1.0002731772420426,
          "deltaAngle": 0
        }
      }
    },
    {
      "frameId": "frame4399",
      "title": "Twister",
      "timeoutMs": 0,
      "timeoutEnable": false,
      "transitionDurationMs": 1000,
      "showInFrameList": true,
      "showFrameNumber": true,
      "layerProperties": {
        "layer1": {
          "link": false,
          "referenceElementId": "image4947",
          "outlineElementId": "image4947",
          "outlineElementAuto": true,
          "transitionTimingFunction": "linear",
          "transitionRelativeZoom": 0,
          "transitionPathId": ""
        },
        "layer2": {
          "link": true,
          "referenceElementId": "image3076",
          "outlineElementId": "image3076",
          "outlineElementAuto": true,
          "transitionTimingFunction": "linear",
          "transitionRelativeZoom": 0,
          "transitionPathId": ""
        },
        "__sozi_auto__": {
          "link": true,
          "referenceElementId": "",
          "outlineElementId": "image1733",
          "outlineElementAuto": true,
          "transitionTimingFunction": "linear",
          "transitionRelativeZoom": 0,
          "transitionPathId": ""
        }
      },
      "cameraStates": {
        "layer1": {
          "cx": 3572.3916015625,
          "cy": 816.01318359375,
          "width": 1123.9007568359377,
          "height": 843.75,
          "opacity": 1,
          "angle": 0,
          "clipped": true,
          "clipXOffset": 0,
          "clipYOffset": 0,
          "clipWidthFactor": 1,
          "clipHeightFactor": 1
        },
        "layer2": {
          "cx": 4392.995158226174,
          "cy": 3546.5379523829442,
          "width": 561.695086509613,
          "height": 421.6833438004957,
          "opacity": 0,
          "angle": 0,
          "clipped": true,
          "clipXOffset": 0,
          "clipYOffset": 0,
          "clipWidthFactor": 1,
          "clipHeightFactor": 1
        },
        "__sozi_auto__": {
          "cx": 4103.418193618639,
          "cy": 2898.4631190885348,
          "width": 1332.394377973016,
          "height": 1000.2731554160164,
          "opacity": 1,
          "angle": 0,
          "clipped": true,
          "clipXOffset": 0,
          "clipYOffset": 0,
          "clipWidthFactor": 1,
          "clipHeightFactor": 1
        }
      },
      "cameraOffsets": {
        "layer1": {
          "deltaX": 0,
          "deltaY": 0,
          "widthFactor": 1.0000000000000002,
          "heightFactor": 1,
          "deltaAngle": 0
        },
        "layer2": {
          "deltaX": -22.32320114882623,
          "deltaY": -11.66224292955576,
          "widthFactor": 0.9995456698972334,
          "heightFactor": 1.0002731772420426,
          "deltaAngle": 0
        }
      }
    },
    {
      "frameId": "frame2084",
      "title": "Riot",
      "timeoutMs": 0,
      "timeoutEnable": false,
      "transitionDurationMs": 1000,
      "showInFrameList": true,
      "showFrameNumber": true,
      "layerProperties": {
        "layer1": {
          "link": false,
          "referenceElementId": "image5236",
          "outlineElementId": "image5236",
          "outlineElementAuto": true,
          "transitionTimingFunction": "linear",
          "transitionRelativeZoom": 0,
          "transitionPathId": ""
        },
        "layer2": {
          "link": true,
          "referenceElementId": "image3076",
          "outlineElementId": "image3076",
          "outlineElementAuto": true,
          "transitionTimingFunction": "linear",
          "transitionRelativeZoom": 0,
          "transitionPathId": ""
        },
        "__sozi_auto__": {
          "link": true,
          "referenceElementId": "",
          "outlineElementId": "image1733",
          "outlineElementAuto": true,
          "transitionTimingFunction": "linear",
          "transitionRelativeZoom": 0,
          "transitionPathId": ""
        }
      },
      "cameraStates": {
        "layer1": {
          "cx": 1324.590087890625,
          "cy": 816.01318359375,
          "width": 1123.9007568359377,
          "height": 843.7500000000002,
          "opacity": 1,
          "angle": 0,
          "clipped": true,
          "clipXOffset": 0,
          "clipYOffset": 0,
          "clipWidthFactor": 1,
          "clipHeightFactor": 1
        },
        "layer2": {
          "cx": 4392.995158226174,
          "cy": 3546.5379523829442,
          "width": 561.695086509613,
          "height": 421.6833438004957,
          "opacity": 0,
          "angle": 0,
          "clipped": true,
          "clipXOffset": 0,
          "clipYOffset": 0,
          "clipWidthFactor": 1,
          "clipHeightFactor": 1
        },
        "__sozi_auto__": {
          "cx": 4103.418193618639,
          "cy": 2898.4631190885348,
          "width": 1332.394377973016,
          "height": 1000.2731554160164,
          "opacity": 1,
          "angle": 0,
          "clipped": true,
          "clipXOffset": 0,
          "clipYOffset": 0,
          "clipWidthFactor": 1,
          "clipHeightFactor": 1
        }
      },
      "cameraOffsets": {
        "layer1": {
          "deltaX": 0,
          "deltaY": 0,
          "widthFactor": 1.0000000000000002,
          "heightFactor": 1.0000000000000002,
          "deltaAngle": 0
        },
        "layer2": {
          "deltaX": -22.32320114882623,
          "deltaY": -11.66224292955576,
          "widthFactor": 0.9995456698972334,
          "heightFactor": 1.0002731772420426,
          "deltaAngle": 0
        }
      }
    },
    {
      "frameId": "frame2831",
      "title": "La e de volta outra vez",
      "timeoutMs": 0,
      "timeoutEnable": false,
      "transitionDurationMs": 1000,
      "showInFrameList": true,
      "showFrameNumber": true,
      "layerProperties": {
        "layer1": {
          "link": false,
          "referenceElementId": "image1755",
          "outlineElementId": "image1755",
          "outlineElementAuto": true,
          "transitionTimingFunction": "linear",
          "transitionRelativeZoom": 0,
          "transitionPathId": ""
        },
        "layer2": {
          "link": true,
          "referenceElementId": "image3076",
          "outlineElementId": "image3076",
          "outlineElementAuto": true,
          "transitionTimingFunction": "linear",
          "transitionRelativeZoom": 0,
          "transitionPathId": ""
        },
        "__sozi_auto__": {
          "link": true,
          "referenceElementId": "",
          "outlineElementId": "image1733",
          "outlineElementAuto": true,
          "transitionTimingFunction": "linear",
          "transitionRelativeZoom": 0,
          "transitionPathId": ""
        }
      },
      "cameraStates": {
        "layer1": {
          "cx": 4696.29248046875,
          "cy": 816.01318359375,
          "width": 1123.9007568359377,
          "height": 843.7500000000002,
          "opacity": 1,
          "angle": 0,
          "clipped": true,
          "clipXOffset": 0,
          "clipYOffset": 0,
          "clipWidthFactor": 1,
          "clipHeightFactor": 1
        },
        "layer2": {
          "cx": 4392.995158226174,
          "cy": 3546.5379523829442,
          "width": 561.695086509613,
          "height": 421.6833438004957,
          "opacity": 0,
          "angle": 0,
          "clipped": true,
          "clipXOffset": 0,
          "clipYOffset": 0,
          "clipWidthFactor": 1,
          "clipHeightFactor": 1
        },
        "__sozi_auto__": {
          "cx": 4103.418193618639,
          "cy": 2898.4631190885348,
          "width": 1332.394377973016,
          "height": 1000.2731554160164,
          "opacity": 1,
          "angle": 0,
          "clipped": true,
          "clipXOffset": 0,
          "clipYOffset": 0,
          "clipWidthFactor": 1,
          "clipHeightFactor": 1
        }
      },
      "cameraOffsets": {
        "layer1": {
          "deltaX": 0,
          "deltaY": 0,
          "widthFactor": 1.0000000000000002,
          "heightFactor": 1.0000000000000002,
          "deltaAngle": 0
        },
        "layer2": {
          "deltaX": -22.32320114882623,
          "deltaY": -11.66224292955576,
          "widthFactor": 0.9995456698972334,
          "heightFactor": 1.0002731772420426,
          "deltaAngle": 0
        }
      }
    },
    {
      "frameId": "frame6079",
      "title": "Furando a bolha",
      "timeoutMs": 0,
      "timeoutEnable": false,
      "transitionDurationMs": 1000,
      "showInFrameList": true,
      "showFrameNumber": true,
      "layerProperties": {
        "layer1": {
          "link": false,
          "referenceElementId": "image1228",
          "outlineElementId": "image1228",
          "outlineElementAuto": true,
          "transitionTimingFunction": "linear",
          "transitionRelativeZoom": 0,
          "transitionPathId": ""
        },
        "layer2": {
          "link": false,
          "referenceElementId": "image5646",
          "outlineElementId": "image5646",
          "outlineElementAuto": true,
          "transitionTimingFunction": "linear",
          "transitionRelativeZoom": 0,
          "transitionPathId": ""
        },
        "__sozi_auto__": {
          "link": true,
          "referenceElementId": "",
          "outlineElementId": "image1733",
          "outlineElementAuto": true,
          "transitionTimingFunction": "linear",
          "transitionRelativeZoom": 0,
          "transitionPathId": ""
        }
      },
      "cameraStates": {
        "layer1": {
          "cx": 1220.04052734375,
          "cy": 3425.38818359375,
          "width": 1333,
          "height": 1000,
          "opacity": 1,
          "angle": 0,
          "clipped": true,
          "clipXOffset": 0,
          "clipYOffset": 0,
          "clipWidthFactor": 1,
          "clipHeightFactor": 1
        },
        "layer2": {
          "cx": 4977.2685546875,
          "cy": 3136.324951171875,
          "width": 561.950397491455,
          "height": 421.56818096748606,
          "opacity": 1,
          "angle": 0,
          "clipped": true,
          "clipXOffset": 0,
          "clipYOffset": 0,
          "clipWidthFactor": 1,
          "clipHeightFactor": 1
        },
        "__sozi_auto__": {
          "cx": 4103.418193618639,
          "cy": 2898.4631190885348,
          "width": 1332.394377973016,
          "height": 1000.2731554160164,
          "opacity": 1,
          "angle": 0,
          "clipped": true,
          "clipXOffset": 0,
          "clipYOffset": 0,
          "clipWidthFactor": 1,
          "clipHeightFactor": 1
        }
      },
      "cameraOffsets": {
        "layer1": {
          "deltaX": 0,
          "deltaY": 0,
          "widthFactor": 1,
          "heightFactor": 1,
          "deltaAngle": 0
        },
        "layer2": {
          "deltaX": 0,
          "deltaY": 0,
          "widthFactor": 0.9999999999999998,
          "heightFactor": 0.9999999999999999,
          "deltaAngle": 0
        }
      }
    },
    {
      "frameId": "frame8545",
      "title": "Furando a bolha",
      "timeoutMs": 0,
      "timeoutEnable": false,
      "transitionDurationMs": 1000,
      "showInFrameList": true,
      "showFrameNumber": true,
      "layerProperties": {
        "layer1": {
          "link": true,
          "referenceElementId": "image1766",
          "outlineElementId": "image1766",
          "outlineElementAuto": true,
          "transitionTimingFunction": "linear",
          "transitionRelativeZoom": 0,
          "transitionPathId": ""
        },
        "layer2": {
          "link": false,
          "referenceElementId": "image5646",
          "outlineElementId": "image5646",
          "outlineElementAuto": true,
          "transitionTimingFunction": "linear",
          "transitionRelativeZoom": 0,
          "transitionPathId": ""
        },
        "__sozi_auto__": {
          "link": true,
          "referenceElementId": "",
          "outlineElementId": "image1733",
          "outlineElementAuto": true,
          "transitionTimingFunction": "linear",
          "transitionRelativeZoom": 0,
          "transitionPathId": ""
        }
      },
      "cameraStates": {
        "layer1": {
          "cx": 1220.04052734375,
          "cy": 3425.38818359375,
          "width": 1333,
          "height": 1000,
          "opacity": 1,
          "angle": 0,
          "clipped": true,
          "clipXOffset": 0,
          "clipYOffset": 0,
          "clipWidthFactor": 1,
          "clipHeightFactor": 1
        },
        "layer2": {
          "cx": 4977.2685546875,
          "cy": 3136.324951171875,
          "width": 561.950397491455,
          "height": 421.56818096748606,
          "opacity": 0,
          "angle": 0,
          "clipped": true,
          "clipXOffset": 0,
          "clipYOffset": 0,
          "clipWidthFactor": 1,
          "clipHeightFactor": 1
        },
        "__sozi_auto__": {
          "cx": 4103.418193618639,
          "cy": 2898.4631190885348,
          "width": 1332.394377973016,
          "height": 1000.2731554160164,
          "opacity": 1,
          "angle": 0,
          "clipped": true,
          "clipXOffset": 0,
          "clipYOffset": 0,
          "clipWidthFactor": 1,
          "clipHeightFactor": 1
        }
      },
      "cameraOffsets": {
        "layer2": {
          "deltaX": 0,
          "deltaY": 0,
          "widthFactor": 0.9999999999999998,
          "heightFactor": 0.9999999999999999,
          "deltaAngle": 0
        }
      }
    },
    {
      "frameId": "frame7191",
      "title": "Orgulhosamente",
      "timeoutMs": 0,
      "timeoutEnable": false,
      "transitionDurationMs": 1000,
      "showInFrameList": true,
      "showFrameNumber": true,
      "layerProperties": {
        "layer1": {
          "link": false,
          "referenceElementId": "image1621",
          "outlineElementId": "image1621",
          "outlineElementAuto": true,
          "transitionTimingFunction": "linear",
          "transitionRelativeZoom": 0,
          "transitionPathId": ""
        },
        "layer2": {
          "link": false,
          "referenceElementId": "image5646",
          "outlineElementId": "image5646",
          "outlineElementAuto": true,
          "transitionTimingFunction": "linear",
          "transitionRelativeZoom": 0,
          "transitionPathId": ""
        },
        "__sozi_auto__": {
          "link": true,
          "referenceElementId": "",
          "outlineElementId": "image1733",
          "outlineElementAuto": true,
          "transitionTimingFunction": "linear",
          "transitionRelativeZoom": 0,
          "transitionPathId": ""
        }
      },
      "cameraStates": {
        "layer1": {
          "cx": 3572.3916015625,
          "cy": 3347.26318359375,
          "width": 1123.9007568359377,
          "height": 843.75,
          "opacity": 1,
          "angle": 0,
          "clipped": true,
          "clipXOffset": 0,
          "clipYOffset": 0,
          "clipWidthFactor": 1,
          "clipHeightFactor": 1
        },
        "layer2": {
          "cx": 4977.2685546875,
          "cy": 3136.324951171875,
          "width": 561.950397491455,
          "height": 421.56818096748606,
          "opacity": 0,
          "angle": 0,
          "clipped": true,
          "clipXOffset": 0,
          "clipYOffset": 0,
          "clipWidthFactor": 1,
          "clipHeightFactor": 1
        },
        "__sozi_auto__": {
          "cx": 4103.418193618639,
          "cy": 2898.4631190885348,
          "width": 1332.394377973016,
          "height": 1000.2731554160164,
          "opacity": 1,
          "angle": 0,
          "clipped": true,
          "clipXOffset": 0,
          "clipYOffset": 0,
          "clipWidthFactor": 1,
          "clipHeightFactor": 1
        }
      },
      "cameraOffsets": {
        "layer1": {
          "deltaX": 0,
          "deltaY": 0,
          "widthFactor": 1.0000000000000002,
          "heightFactor": 1,
          "deltaAngle": 0
        },
        "layer2": {
          "deltaX": 0,
          "deltaY": 0,
          "widthFactor": 0.9999999999999998,
          "heightFactor": 0.9999999999999999,
          "deltaAngle": 0
        }
      }
    },
    {
      "frameId": "frame3730",
      "title": "Ativismo",
      "timeoutMs": 0,
      "timeoutEnable": false,
      "transitionDurationMs": 1000,
      "showInFrameList": true,
      "showFrameNumber": true,
      "layerProperties": {
        "layer1": {
          "link": true,
          "referenceElementId": "image1621",
          "outlineElementId": "image1621",
          "outlineElementAuto": true,
          "transitionTimingFunction": "linear",
          "transitionRelativeZoom": 0,
          "transitionPathId": ""
        },
        "layer2": {
          "link": false,
          "referenceElementId": "image8870",
          "outlineElementId": "image8870",
          "outlineElementAuto": true,
          "transitionTimingFunction": "linear",
          "transitionRelativeZoom": 0,
          "transitionPathId": ""
        },
        "__sozi_auto__": {
          "link": true,
          "referenceElementId": "",
          "outlineElementId": "image1733",
          "outlineElementAuto": true,
          "transitionTimingFunction": "linear",
          "transitionRelativeZoom": 0,
          "transitionPathId": ""
        }
      },
      "cameraStates": {
        "layer1": {
          "cx": 3572.3916015625,
          "cy": 3347.26318359375,
          "width": 1123.9007568359377,
          "height": 843.75,
          "opacity": 1,
          "angle": 0,
          "clipped": true,
          "clipXOffset": 0,
          "clipYOffset": 0,
          "clipWidthFactor": 1,
          "clipHeightFactor": 1
        },
        "layer2": {
          "cx": 4977.2685546875,
          "cy": 3558.2001953125,
          "width": 561.950397491455,
          "height": 421.56818096748606,
          "opacity": 1,
          "angle": 0,
          "clipped": true,
          "clipXOffset": 0,
          "clipYOffset": 0,
          "clipWidthFactor": 1,
          "clipHeightFactor": 1
        },
        "__sozi_auto__": {
          "cx": 4103.418193618639,
          "cy": 2898.4631190885348,
          "width": 1332.394377973016,
          "height": 1000.2731554160164,
          "opacity": 1,
          "angle": 0,
          "clipped": true,
          "clipXOffset": 0,
          "clipYOffset": 0,
          "clipWidthFactor": 1,
          "clipHeightFactor": 1
        }
      },
      "cameraOffsets": {
        "layer1": {
          "deltaX": 0,
          "deltaY": 0,
          "widthFactor": 1.0000000000000002,
          "heightFactor": 1,
          "deltaAngle": 0
        },
        "layer2": {
          "deltaX": 0,
          "deltaY": 0,
          "widthFactor": 0.9999999999999998,
          "heightFactor": 0.9999999999999999,
          "deltaAngle": 0
        }
      }
    },
    {
      "frameId": "frame2494",
      "title": "Fim",
      "timeoutMs": 0,
      "timeoutEnable": false,
      "transitionDurationMs": 1000,
      "showInFrameList": true,
      "showFrameNumber": true,
      "layerProperties": {
        "layer1": {
          "link": false,
          "referenceElementId": "image1228",
          "outlineElementId": "image1228",
          "outlineElementAuto": true,
          "transitionTimingFunction": "linear",
          "transitionRelativeZoom": 0,
          "transitionPathId": ""
        },
        "layer2": {
          "link": false,
          "referenceElementId": "image8870",
          "outlineElementId": "image8870",
          "outlineElementAuto": true,
          "transitionTimingFunction": "linear",
          "transitionRelativeZoom": 0,
          "transitionPathId": ""
        },
        "__sozi_auto__": {
          "link": true,
          "referenceElementId": "",
          "outlineElementId": "image1733",
          "outlineElementAuto": true,
          "transitionTimingFunction": "linear",
          "transitionRelativeZoom": 0,
          "transitionPathId": ""
        }
      },
      "cameraStates": {
        "layer1": {
          "cx": 3613.5544553852014,
          "cy": 2139.234370789959,
          "width": 6203.965909219188,
          "height": 4655.409269398386,
          "opacity": 1,
          "angle": 0,
          "clipped": true,
          "clipXOffset": 0,
          "clipYOffset": 0,
          "clipWidthFactor": 0.9992727131435586,
          "clipHeightFactor": 0.999726919177488
        },
        "layer2": {
          "cx": 4977.2685546875,
          "cy": 3558.2001953125,
          "width": 561.950397491455,
          "height": 421.56818096748606,
          "opacity": 0,
          "angle": 0,
          "clipped": true,
          "clipXOffset": 0,
          "clipYOffset": 0,
          "clipWidthFactor": 1,
          "clipHeightFactor": 1
        },
        "__sozi_auto__": {
          "cx": 4103.418193618639,
          "cy": 2898.4631190885348,
          "width": 1332.394377973016,
          "height": 1000.2731554160164,
          "opacity": 1,
          "angle": 0,
          "clipped": true,
          "clipXOffset": 0,
          "clipYOffset": 0,
          "clipWidthFactor": 1,
          "clipHeightFactor": 1
        }
      },
      "cameraOffsets": {
        "layer1": {
          "deltaX": 2393.5139280414514,
          "deltaY": -1286.153812803791,
          "widthFactor": 4.654137966405992,
          "heightFactor": 4.655409269398386,
          "deltaAngle": 0
        },
        "layer2": {
          "deltaX": 0,
          "deltaY": 0,
          "widthFactor": 0.9999999999999998,
          "heightFactor": 0.9999999999999999,
          "deltaAngle": 0
        }
      }
    }
  ],
  "elementsToHide": [],
  "selectedFrames": [
    "frame2494"
  ],
  "selectedLayers": [
    "layer1"
  ],
  "editableLayers": [
    "layer2",
    "layer1"
  ]
}